%!PS-Adobe-2.0
%%Title: generic.ps
%%Creator: gnuplot 5.2 patchlevel 0
%%CreationDate: Mon Mar 13 16:27:49 2023
%%DocumentFonts: (atend)
%%BoundingBox: 50 50 554 770
%%Orientation: Landscape
%%Pages: (atend)
%%EndComments
%%BeginProlog
/gnudict 256 dict def
gnudict begin
%
% The following true/false flags may be edited by hand if desired.
% The unit line width and grayscale image gamma correction may also be changed.
%
/Color true def
/Blacktext false def
/Solid false def
/Dashlength 1 def
/Landscape true def
/Level1 false def
/Level3 false def
/Rounded false def
/ClipToBoundingBox false def
/SuppressPDFMark false def
/TransparentPatterns false def
/gnulinewidth 5.000 def
/userlinewidth gnulinewidth def
/Gamma 1.0 def
/BackgroundColor {-1.000 -1.000 -1.000} def
%
/vshift -46 def
/dl1 {
  10.0 Dashlength userlinewidth gnulinewidth div mul mul mul
  Rounded { currentlinewidth 0.75 mul sub dup 0 le { pop 0.01 } if } if
} def
/dl2 {
  10.0 Dashlength userlinewidth gnulinewidth div mul mul mul
  Rounded { currentlinewidth 0.75 mul add } if
} def
/hpt_ 31.5 def
/vpt_ 31.5 def
/hpt hpt_ def
/vpt vpt_ def
/doclip {
  ClipToBoundingBox {
    newpath 50 50 moveto 554 50 lineto 554 770 lineto 50 770 lineto closepath
    clip
  } if
} def
%
% Gnuplot Prolog Version 5.1 (Oct 2015)
%
%/SuppressPDFMark true def
%
/M {moveto} bind def
/L {lineto} bind def
/R {rmoveto} bind def
/V {rlineto} bind def
/N {newpath moveto} bind def
/Z {closepath} bind def
/C {setrgbcolor} bind def
/f {rlineto fill} bind def
/g {setgray} bind def
/Gshow {show} def   % May be redefined later in the file to support UTF-8
/vpt2 vpt 2 mul def
/hpt2 hpt 2 mul def
/Lshow {currentpoint stroke M 0 vshift R 
	Blacktext {gsave 0 setgray textshow grestore} {textshow} ifelse} def
/Rshow {currentpoint stroke M dup stringwidth pop neg vshift R
	Blacktext {gsave 0 setgray textshow grestore} {textshow} ifelse} def
/Cshow {currentpoint stroke M dup stringwidth pop -2 div vshift R 
	Blacktext {gsave 0 setgray textshow grestore} {textshow} ifelse} def
/UP {dup vpt_ mul /vpt exch def hpt_ mul /hpt exch def
  /hpt2 hpt 2 mul def /vpt2 vpt 2 mul def} def
/DL {Color {setrgbcolor Solid {pop []} if 0 setdash}
 {pop pop pop 0 setgray Solid {pop []} if 0 setdash} ifelse} def
/BL {stroke userlinewidth 2 mul setlinewidth
	Rounded {1 setlinejoin 1 setlinecap} if} def
/AL {stroke userlinewidth 2 div setlinewidth
	Rounded {1 setlinejoin 1 setlinecap} if} def
/UL {dup gnulinewidth mul /userlinewidth exch def
	dup 1 lt {pop 1} if 10 mul /udl exch def} def
/PL {stroke userlinewidth setlinewidth
	Rounded {1 setlinejoin 1 setlinecap} if} def
3.8 setmiterlimit
% Classic Line colors (version 5.0)
/LCw {1 1 1} def
/LCb {0 0 0} def
/LCa {0 0 0} def
/LC0 {1 0 0} def
/LC1 {0 1 0} def
/LC2 {0 0 1} def
/LC3 {1 0 1} def
/LC4 {0 1 1} def
/LC5 {1 1 0} def
/LC6 {0 0 0} def
/LC7 {1 0.3 0} def
/LC8 {0.5 0.5 0.5} def
% Default dash patterns (version 5.0)
/LTB {BL [] LCb DL} def
/LTw {PL [] 1 setgray} def
/LTb {PL [] LCb DL} def
/LTa {AL [1 udl mul 2 udl mul] 0 setdash LCa setrgbcolor} def
/LT0 {PL [] LC0 DL} def
/LT1 {PL [2 dl1 3 dl2] LC1 DL} def
/LT2 {PL [1 dl1 1.5 dl2] LC2 DL} def
/LT3 {PL [6 dl1 2 dl2 1 dl1 2 dl2] LC3 DL} def
/LT4 {PL [1 dl1 2 dl2 6 dl1 2 dl2 1 dl1 2 dl2] LC4 DL} def
/LT5 {PL [4 dl1 2 dl2] LC5 DL} def
/LT6 {PL [1.5 dl1 1.5 dl2 1.5 dl1 1.5 dl2 1.5 dl1 6 dl2] LC6 DL} def
/LT7 {PL [3 dl1 3 dl2 1 dl1 3 dl2] LC7 DL} def
/LT8 {PL [2 dl1 2 dl2 2 dl1 6 dl2] LC8 DL} def
/SL {[] 0 setdash} def
/Pnt {stroke [] 0 setdash gsave 1 setlinecap M 0 0 V stroke grestore} def
/Dia {stroke [] 0 setdash 2 copy vpt add M
  hpt neg vpt neg V hpt vpt neg V
  hpt vpt V hpt neg vpt V closepath stroke
  Pnt} def
/Pls {stroke [] 0 setdash vpt sub M 0 vpt2 V
  currentpoint stroke M
  hpt neg vpt neg R hpt2 0 V stroke
 } def
/Box {stroke [] 0 setdash 2 copy exch hpt sub exch vpt add M
  0 vpt2 neg V hpt2 0 V 0 vpt2 V
  hpt2 neg 0 V closepath stroke
  Pnt} def
/Crs {stroke [] 0 setdash exch hpt sub exch vpt add M
  hpt2 vpt2 neg V currentpoint stroke M
  hpt2 neg 0 R hpt2 vpt2 V stroke} def
/TriU {stroke [] 0 setdash 2 copy vpt 1.12 mul add M
  hpt neg vpt -1.62 mul V
  hpt 2 mul 0 V
  hpt neg vpt 1.62 mul V closepath stroke
  Pnt} def
/Star {2 copy Pls Crs} def
/BoxF {stroke [] 0 setdash exch hpt sub exch vpt add M
  0 vpt2 neg V hpt2 0 V 0 vpt2 V
  hpt2 neg 0 V closepath fill} def
/TriUF {stroke [] 0 setdash vpt 1.12 mul add M
  hpt neg vpt -1.62 mul V
  hpt 2 mul 0 V
  hpt neg vpt 1.62 mul V closepath fill} def
/TriD {stroke [] 0 setdash 2 copy vpt 1.12 mul sub M
  hpt neg vpt 1.62 mul V
  hpt 2 mul 0 V
  hpt neg vpt -1.62 mul V closepath stroke
  Pnt} def
/TriDF {stroke [] 0 setdash vpt 1.12 mul sub M
  hpt neg vpt 1.62 mul V
  hpt 2 mul 0 V
  hpt neg vpt -1.62 mul V closepath fill} def
/DiaF {stroke [] 0 setdash vpt add M
  hpt neg vpt neg V hpt vpt neg V
  hpt vpt V hpt neg vpt V closepath fill} def
/Pent {stroke [] 0 setdash 2 copy gsave
  translate 0 hpt M 4 {72 rotate 0 hpt L} repeat
  closepath stroke grestore Pnt} def
/PentF {stroke [] 0 setdash gsave
  translate 0 hpt M 4 {72 rotate 0 hpt L} repeat
  closepath fill grestore} def
/Circle {stroke [] 0 setdash 2 copy
  hpt 0 360 arc stroke Pnt} def
/CircleF {stroke [] 0 setdash hpt 0 360 arc fill} def
/C0 {BL [] 0 setdash 2 copy moveto vpt 90 450 arc} bind def
/C1 {BL [] 0 setdash 2 copy moveto
	2 copy vpt 0 90 arc closepath fill
	vpt 0 360 arc closepath} bind def
/C2 {BL [] 0 setdash 2 copy moveto
	2 copy vpt 90 180 arc closepath fill
	vpt 0 360 arc closepath} bind def
/C3 {BL [] 0 setdash 2 copy moveto
	2 copy vpt 0 180 arc closepath fill
	vpt 0 360 arc closepath} bind def
/C4 {BL [] 0 setdash 2 copy moveto
	2 copy vpt 180 270 arc closepath fill
	vpt 0 360 arc closepath} bind def
/C5 {BL [] 0 setdash 2 copy moveto
	2 copy vpt 0 90 arc
	2 copy moveto
	2 copy vpt 180 270 arc closepath fill
	vpt 0 360 arc} bind def
/C6 {BL [] 0 setdash 2 copy moveto
	2 copy vpt 90 270 arc closepath fill
	vpt 0 360 arc closepath} bind def
/C7 {BL [] 0 setdash 2 copy moveto
	2 copy vpt 0 270 arc closepath fill
	vpt 0 360 arc closepath} bind def
/C8 {BL [] 0 setdash 2 copy moveto
	2 copy vpt 270 360 arc closepath fill
	vpt 0 360 arc closepath} bind def
/C9 {BL [] 0 setdash 2 copy moveto
	2 copy vpt 270 450 arc closepath fill
	vpt 0 360 arc closepath} bind def
/C10 {BL [] 0 setdash 2 copy 2 copy moveto vpt 270 360 arc closepath fill
	2 copy moveto
	2 copy vpt 90 180 arc closepath fill
	vpt 0 360 arc closepath} bind def
/C11 {BL [] 0 setdash 2 copy moveto
	2 copy vpt 0 180 arc closepath fill
	2 copy moveto
	2 copy vpt 270 360 arc closepath fill
	vpt 0 360 arc closepath} bind def
/C12 {BL [] 0 setdash 2 copy moveto
	2 copy vpt 180 360 arc closepath fill
	vpt 0 360 arc closepath} bind def
/C13 {BL [] 0 setdash 2 copy moveto
	2 copy vpt 0 90 arc closepath fill
	2 copy moveto
	2 copy vpt 180 360 arc closepath fill
	vpt 0 360 arc closepath} bind def
/C14 {BL [] 0 setdash 2 copy moveto
	2 copy vpt 90 360 arc closepath fill
	vpt 0 360 arc} bind def
/C15 {BL [] 0 setdash 2 copy vpt 0 360 arc closepath fill
	vpt 0 360 arc closepath} bind def
/Rec {newpath 4 2 roll moveto 1 index 0 rlineto 0 exch rlineto
	neg 0 rlineto closepath} bind def
/Square {dup Rec} bind def
/Bsquare {vpt sub exch vpt sub exch vpt2 Square} bind def
/S0 {BL [] 0 setdash 2 copy moveto 0 vpt rlineto BL Bsquare} bind def
/S1 {BL [] 0 setdash 2 copy vpt Square fill Bsquare} bind def
/S2 {BL [] 0 setdash 2 copy exch vpt sub exch vpt Square fill Bsquare} bind def
/S3 {BL [] 0 setdash 2 copy exch vpt sub exch vpt2 vpt Rec fill Bsquare} bind def
/S4 {BL [] 0 setdash 2 copy exch vpt sub exch vpt sub vpt Square fill Bsquare} bind def
/S5 {BL [] 0 setdash 2 copy 2 copy vpt Square fill
	exch vpt sub exch vpt sub vpt Square fill Bsquare} bind def
/S6 {BL [] 0 setdash 2 copy exch vpt sub exch vpt sub vpt vpt2 Rec fill Bsquare} bind def
/S7 {BL [] 0 setdash 2 copy exch vpt sub exch vpt sub vpt vpt2 Rec fill
	2 copy vpt Square fill Bsquare} bind def
/S8 {BL [] 0 setdash 2 copy vpt sub vpt Square fill Bsquare} bind def
/S9 {BL [] 0 setdash 2 copy vpt sub vpt vpt2 Rec fill Bsquare} bind def
/S10 {BL [] 0 setdash 2 copy vpt sub vpt Square fill 2 copy exch vpt sub exch vpt Square fill
	Bsquare} bind def
/S11 {BL [] 0 setdash 2 copy vpt sub vpt Square fill 2 copy exch vpt sub exch vpt2 vpt Rec fill
	Bsquare} bind def
/S12 {BL [] 0 setdash 2 copy exch vpt sub exch vpt sub vpt2 vpt Rec fill Bsquare} bind def
/S13 {BL [] 0 setdash 2 copy exch vpt sub exch vpt sub vpt2 vpt Rec fill
	2 copy vpt Square fill Bsquare} bind def
/S14 {BL [] 0 setdash 2 copy exch vpt sub exch vpt sub vpt2 vpt Rec fill
	2 copy exch vpt sub exch vpt Square fill Bsquare} bind def
/S15 {BL [] 0 setdash 2 copy Bsquare fill Bsquare} bind def
/D0 {gsave translate 45 rotate 0 0 S0 stroke grestore} bind def
/D1 {gsave translate 45 rotate 0 0 S1 stroke grestore} bind def
/D2 {gsave translate 45 rotate 0 0 S2 stroke grestore} bind def
/D3 {gsave translate 45 rotate 0 0 S3 stroke grestore} bind def
/D4 {gsave translate 45 rotate 0 0 S4 stroke grestore} bind def
/D5 {gsave translate 45 rotate 0 0 S5 stroke grestore} bind def
/D6 {gsave translate 45 rotate 0 0 S6 stroke grestore} bind def
/D7 {gsave translate 45 rotate 0 0 S7 stroke grestore} bind def
/D8 {gsave translate 45 rotate 0 0 S8 stroke grestore} bind def
/D9 {gsave translate 45 rotate 0 0 S9 stroke grestore} bind def
/D10 {gsave translate 45 rotate 0 0 S10 stroke grestore} bind def
/D11 {gsave translate 45 rotate 0 0 S11 stroke grestore} bind def
/D12 {gsave translate 45 rotate 0 0 S12 stroke grestore} bind def
/D13 {gsave translate 45 rotate 0 0 S13 stroke grestore} bind def
/D14 {gsave translate 45 rotate 0 0 S14 stroke grestore} bind def
/D15 {gsave translate 45 rotate 0 0 S15 stroke grestore} bind def
/DiaE {stroke [] 0 setdash vpt add M
  hpt neg vpt neg V hpt vpt neg V
  hpt vpt V hpt neg vpt V closepath stroke} def
/BoxE {stroke [] 0 setdash exch hpt sub exch vpt add M
  0 vpt2 neg V hpt2 0 V 0 vpt2 V
  hpt2 neg 0 V closepath stroke} def
/TriUE {stroke [] 0 setdash vpt 1.12 mul add M
  hpt neg vpt -1.62 mul V
  hpt 2 mul 0 V
  hpt neg vpt 1.62 mul V closepath stroke} def
/TriDE {stroke [] 0 setdash vpt 1.12 mul sub M
  hpt neg vpt 1.62 mul V
  hpt 2 mul 0 V
  hpt neg vpt -1.62 mul V closepath stroke} def
/PentE {stroke [] 0 setdash gsave
  translate 0 hpt M 4 {72 rotate 0 hpt L} repeat
  closepath stroke grestore} def
/CircE {stroke [] 0 setdash 
  hpt 0 360 arc stroke} def
/Opaque {gsave closepath 1 setgray fill grestore 0 setgray closepath} def
/DiaW {stroke [] 0 setdash vpt add M
  hpt neg vpt neg V hpt vpt neg V
  hpt vpt V hpt neg vpt V Opaque stroke} def
/BoxW {stroke [] 0 setdash exch hpt sub exch vpt add M
  0 vpt2 neg V hpt2 0 V 0 vpt2 V
  hpt2 neg 0 V Opaque stroke} def
/TriUW {stroke [] 0 setdash vpt 1.12 mul add M
  hpt neg vpt -1.62 mul V
  hpt 2 mul 0 V
  hpt neg vpt 1.62 mul V Opaque stroke} def
/TriDW {stroke [] 0 setdash vpt 1.12 mul sub M
  hpt neg vpt 1.62 mul V
  hpt 2 mul 0 V
  hpt neg vpt -1.62 mul V Opaque stroke} def
/PentW {stroke [] 0 setdash gsave
  translate 0 hpt M 4 {72 rotate 0 hpt L} repeat
  Opaque stroke grestore} def
/CircW {stroke [] 0 setdash 
  hpt 0 360 arc Opaque stroke} def
/BoxFill {gsave Rec 1 setgray fill grestore} def
/Density {
  /Fillden exch def
  currentrgbcolor
  /ColB exch def /ColG exch def /ColR exch def
  /ColR ColR Fillden mul Fillden sub 1 add def
  /ColG ColG Fillden mul Fillden sub 1 add def
  /ColB ColB Fillden mul Fillden sub 1 add def
  ColR ColG ColB setrgbcolor} def
/BoxColFill {gsave Rec PolyFill} def
/PolyFill {gsave Density fill grestore grestore} def
/h {rlineto rlineto rlineto gsave closepath fill grestore} bind def
%
% PostScript Level 1 Pattern Fill routine for rectangles
% Usage: x y w h s a XX PatternFill
%	x,y = lower left corner of box to be filled
%	w,h = width and height of box
%	  a = angle in degrees between lines and x-axis
%	 XX = 0/1 for no/yes cross-hatch
%
/PatternFill {gsave /PFa [ 9 2 roll ] def
  PFa 0 get PFa 2 get 2 div add PFa 1 get PFa 3 get 2 div add translate
  PFa 2 get -2 div PFa 3 get -2 div PFa 2 get PFa 3 get Rec
  TransparentPatterns {} {gsave 1 setgray fill grestore} ifelse
  clip
  currentlinewidth 0.5 mul setlinewidth
  /PFs PFa 2 get dup mul PFa 3 get dup mul add sqrt def
  0 0 M PFa 5 get rotate PFs -2 div dup translate
  0 1 PFs PFa 4 get div 1 add floor cvi
	{PFa 4 get mul 0 M 0 PFs V} for
  0 PFa 6 get ne {
	0 1 PFs PFa 4 get div 1 add floor cvi
	{PFa 4 get mul 0 2 1 roll M PFs 0 V} for
 } if
  stroke grestore} def
%
/languagelevel where
 {pop languagelevel} {1} ifelse
dup 2 lt
	{/InterpretLevel1 true def
	 /InterpretLevel3 false def}
	{/InterpretLevel1 Level1 def
	 2 gt
	    {/InterpretLevel3 Level3 def}
	    {/InterpretLevel3 false def}
	 ifelse }
 ifelse
%
% PostScript level 2 pattern fill definitions
%
/Level2PatternFill {
/Tile8x8 {/PaintType 2 /PatternType 1 /TilingType 1 /BBox [0 0 8 8] /XStep 8 /YStep 8}
	bind def
/KeepColor {currentrgbcolor [/Pattern /DeviceRGB] setcolorspace} bind def
<< Tile8x8
 /PaintProc {0.5 setlinewidth pop 0 0 M 8 8 L 0 8 M 8 0 L stroke} 
>> matrix makepattern
/Pat1 exch def
<< Tile8x8
 /PaintProc {0.5 setlinewidth pop 0 0 M 8 8 L 0 8 M 8 0 L stroke
	0 4 M 4 8 L 8 4 L 4 0 L 0 4 L stroke}
>> matrix makepattern
/Pat2 exch def
<< Tile8x8
 /PaintProc {0.5 setlinewidth pop 0 0 M 0 8 L
	8 8 L 8 0 L 0 0 L fill}
>> matrix makepattern
/Pat3 exch def
<< Tile8x8
 /PaintProc {0.5 setlinewidth pop -4 8 M 8 -4 L
	0 12 M 12 0 L stroke}
>> matrix makepattern
/Pat4 exch def
<< Tile8x8
 /PaintProc {0.5 setlinewidth pop -4 0 M 8 12 L
	0 -4 M 12 8 L stroke}
>> matrix makepattern
/Pat5 exch def
<< Tile8x8
 /PaintProc {0.5 setlinewidth pop -2 8 M 4 -4 L
	0 12 M 8 -4 L 4 12 M 10 0 L stroke}
>> matrix makepattern
/Pat6 exch def
<< Tile8x8
 /PaintProc {0.5 setlinewidth pop -2 0 M 4 12 L
	0 -4 M 8 12 L 4 -4 M 10 8 L stroke}
>> matrix makepattern
/Pat7 exch def
<< Tile8x8
 /PaintProc {0.5 setlinewidth pop 8 -2 M -4 4 L
	12 0 M -4 8 L 12 4 M 0 10 L stroke}
>> matrix makepattern
/Pat8 exch def
<< Tile8x8
 /PaintProc {0.5 setlinewidth pop 0 -2 M 12 4 L
	-4 0 M 12 8 L -4 4 M 8 10 L stroke}
>> matrix makepattern
/Pat9 exch def
/Pattern1 {PatternBgnd KeepColor Pat1 setpattern} bind def
/Pattern2 {PatternBgnd KeepColor Pat2 setpattern} bind def
/Pattern3 {PatternBgnd KeepColor Pat3 setpattern} bind def
/Pattern4 {PatternBgnd KeepColor Landscape {Pat5} {Pat4} ifelse setpattern} bind def
/Pattern5 {PatternBgnd KeepColor Landscape {Pat4} {Pat5} ifelse setpattern} bind def
/Pattern6 {PatternBgnd KeepColor Landscape {Pat9} {Pat6} ifelse setpattern} bind def
/Pattern7 {PatternBgnd KeepColor Landscape {Pat8} {Pat7} ifelse setpattern} bind def
} def
%
%
%End of PostScript Level 2 code
%
/PatternBgnd {
  TransparentPatterns {} {gsave 1 setgray fill grestore} ifelse
} def
%
% Substitute for Level 2 pattern fill codes with
% grayscale if Level 2 support is not selected.
%
/Level1PatternFill {
/Pattern1 {0.250 Density} bind def
/Pattern2 {0.500 Density} bind def
/Pattern3 {0.750 Density} bind def
/Pattern4 {0.125 Density} bind def
/Pattern5 {0.375 Density} bind def
/Pattern6 {0.625 Density} bind def
/Pattern7 {0.875 Density} bind def
} def
%
% Now test for support of Level 2 code
%
Level1 {Level1PatternFill} {Level2PatternFill} ifelse
%
/Symbol-Oblique /Symbol findfont [1 0 .167 1 0 0] makefont
dup length dict begin {1 index /FID eq {pop pop} {def} ifelse} forall
currentdict end definefont pop
%
/Metrics {ExtendTextBox Gswidth} def
/Lwidth {currentpoint stroke M 0 vshift R Metrics} def
/Rwidth {currentpoint stroke M dup stringwidth pop neg vshift R Metrics} def
/Cwidth {currentpoint stroke M dup stringwidth pop -2 div vshift R Metrics} def
/GLwidth {currentpoint stroke M 0 vshift R {ExtendTextBox} forall} def
/GRwidth {currentpoint stroke M dup Gwidth vshift R {ExtendTextBox} forall} def
/GCwidth {currentpoint stroke M dup Gwidth 2 div vshift R {ExtendTextBox} forall} def
/GLwidth2 {0 Gwidth AddGlyphWidth} def
/GRwidth2 {Gwidth -1 mul 0 AddGlyphWidth} def
/GCwidth2 {Gwidth 2 div dup -1 mul AddGlyphWidth} def
/AddGlyphWidth { dup TBx2 gt {userdict /TBx2 3 -1 roll put} {pop} ifelse
                 dup TBx1 lt {userdict /TBx1 3 -1 roll put} {pop} ifelse } def
/MFshow {
   { dup 5 get 3 ge
     { 5 get 3 eq {gsave} {grestore} ifelse }
     {dup dup 0 get findfont exch 1 get scalefont setfont
     [ currentpoint ] exch dup 2 get 0 exch R dup 5 get 2 ne {dup dup 6
     get exch 4 get {textshow} {Metrics pop 0 R} ifelse }if dup 5 get 0 eq
     {dup 3 get {2 get neg 0 exch R pop} {pop aload pop M} ifelse} {dup 5
     get 1 eq {dup 2 get exch dup 3 get exch 6 get Gswidth pop -2 div
     dup 0 R} {dup 6 get Gswidth pop -2 div 0 R 6 get
     textshow 2 index {aload pop M neg 3 -1 roll neg R pop pop} {pop pop pop
     pop aload pop M} ifelse }ifelse }ifelse }
     ifelse }
   forall} def
/Gswidth {dup type /stringtype eq {stringwidth} {pop (n) stringwidth} ifelse} def
/MFwidth {0 exch { dup 5 get 3 ge { 5 get 3 eq { 0 } { pop } ifelse }
 {dup 3 get{dup dup 0 get findfont exch 1 get scalefont setfont
     6 get Gswidth pop add} {pop} ifelse} ifelse} forall} def
/MLshow { currentpoint stroke M
  0 exch R
  Blacktext {gsave 0 setgray MFshow grestore} {MFshow} ifelse } bind def
/MRshow { currentpoint stroke M
  exch dup MFwidth neg 3 -1 roll R
  Blacktext {gsave 0 setgray MFshow grestore} {MFshow} ifelse } bind def
/MCshow { currentpoint stroke M
  exch dup MFwidth -2 div 3 -1 roll R
  Blacktext {gsave 0 setgray MFshow grestore} {MFshow} ifelse } bind def
/XYsave    { [( ) 1 2 true false 3 ()] } bind def
/XYrestore { [( ) 1 2 true false 4 ()] } bind def
Level1 SuppressPDFMark or 
{} {
/SDict 10 dict def
systemdict /pdfmark known not {
  userdict /pdfmark systemdict /cleartomark get put
} if
SDict begin [
  /Title (generic.ps)
  /Subject (gnuplot plot)
  /Creator (gnuplot 5.2 patchlevel 0)
%  /Producer (gnuplot)
%  /Keywords ()
  /CreationDate (Mon Mar 13 16:27:49 2023)
  /DOCINFO pdfmark
end
} ifelse
%
% Support for boxed text - Ethan A Merritt Sep 2016
%
/InitTextBox { userdict /TBy2 3 -1 roll put userdict /TBx2 3 -1 roll put
           userdict /TBy1 3 -1 roll put userdict /TBx1 3 -1 roll put
	   /Boxing true def } def
/ExtendTextBox { dup type /stringtype eq
    { Boxing { gsave dup false charpath pathbbox
      dup TBy2 gt {userdict /TBy2 3 -1 roll put} {pop} ifelse
      dup TBx2 gt {userdict /TBx2 3 -1 roll put} {pop} ifelse
      dup TBy1 lt {userdict /TBy1 3 -1 roll put} {pop} ifelse
      dup TBx1 lt {userdict /TBx1 3 -1 roll put} {pop} ifelse
      grestore } if }
    {} ifelse} def
/PopTextBox { newpath TBx1 TBxmargin sub TBy1 TBymargin sub M
               TBx1 TBxmargin sub TBy2 TBymargin add L
	       TBx2 TBxmargin add TBy2 TBymargin add L
	       TBx2 TBxmargin add TBy1 TBymargin sub L closepath } def
/DrawTextBox { PopTextBox stroke /Boxing false def} def
/FillTextBox { gsave PopTextBox fill grestore /Boxing false def} def
0 0 0 0 InitTextBox
/TBxmargin 20 def
/TBymargin 20 def
/Boxing false def
/textshow { ExtendTextBox Gshow } def
%
end
%%EndProlog
%%Page: 1 1
gnudict begin
gsave
doclip
50 50 translate
0.100 0.100 scale
90 rotate
0 -5040 translate
0 setgray
newpath
(Helvetica) findfont 140 scalefont setfont
BackgroundColor 0 lt 3 1 roll 0 lt exch 0 lt or or not {gsave BackgroundColor C clippath fill grestore} if
1.000 UL
LTb
LCb setrgbcolor
602 448 M
63 0 V
6282 0 R
-63 0 V
stroke
518 448 M
[ [(Helvetica) 140.0 0.0 true true 0 ( 0)]
] -46.7 MRshow
1.000 UL
LTb
LCb setrgbcolor
602 1044 M
63 0 V
6282 0 R
-63 0 V
stroke
518 1044 M
[ [(Helvetica) 140.0 0.0 true true 0 ( 2)]
] -46.7 MRshow
1.000 UL
LTb
LCb setrgbcolor
602 1640 M
63 0 V
6282 0 R
-63 0 V
stroke
518 1640 M
[ [(Helvetica) 140.0 0.0 true true 0 ( 4)]
] -46.7 MRshow
1.000 UL
LTb
LCb setrgbcolor
602 2236 M
63 0 V
6282 0 R
-63 0 V
stroke
518 2236 M
[ [(Helvetica) 140.0 0.0 true true 0 ( 6)]
] -46.7 MRshow
1.000 UL
LTb
LCb setrgbcolor
602 2831 M
63 0 V
6282 0 R
-63 0 V
stroke
518 2831 M
[ [(Helvetica) 140.0 0.0 true true 0 ( 8)]
] -46.7 MRshow
1.000 UL
LTb
LCb setrgbcolor
602 3427 M
63 0 V
6282 0 R
-63 0 V
stroke
518 3427 M
[ [(Helvetica) 140.0 0.0 true true 0 ( 10)]
] -46.7 MRshow
1.000 UL
LTb
LCb setrgbcolor
602 4023 M
63 0 V
6282 0 R
-63 0 V
stroke
518 4023 M
[ [(Helvetica) 140.0 0.0 true true 0 ( 12)]
] -46.7 MRshow
1.000 UL
LTb
LCb setrgbcolor
602 4619 M
63 0 V
6282 0 R
-63 0 V
stroke
518 4619 M
[ [(Helvetica) 140.0 0.0 true true 0 ( 14)]
] -46.7 MRshow
1.000 UL
LTb
LCb setrgbcolor
602 448 M
0 63 V
0 4108 R
0 -63 V
stroke
602 308 M
[ [(Helvetica) 140.0 0.0 true true 0 ( 4)]
] -46.7 MCshow
1.000 UL
LTb
LCb setrgbcolor
1154 448 M
0 63 V
0 4108 R
0 -63 V
stroke
1154 308 M
[ [(Helvetica) 140.0 0.0 true true 0 ( 16)]
] -46.7 MCshow
1.000 UL
LTb
LCb setrgbcolor
1705 448 M
0 63 V
0 4108 R
0 -63 V
stroke
1705 308 M
[ [(Helvetica) 140.0 0.0 true true 0 ( 64)]
] -46.7 MCshow
1.000 UL
LTb
LCb setrgbcolor
2257 448 M
0 63 V
0 4108 R
0 -63 V
stroke
2257 308 M
[ [(Helvetica) 140.0 0.0 true true 0 ( 256)]
] -46.7 MCshow
1.000 UL
LTb
LCb setrgbcolor
2809 448 M
0 63 V
0 4108 R
0 -63 V
stroke
2809 308 M
[ [(Helvetica) 140.0 0.0 true true 0 (1K)]
] -46.7 MCshow
1.000 UL
LTb
LCb setrgbcolor
3361 448 M
0 63 V
0 4108 R
0 -63 V
stroke
3361 308 M
[ [(Helvetica) 140.0 0.0 true true 0 (4K)]
] -46.7 MCshow
1.000 UL
LTb
LCb setrgbcolor
3912 448 M
0 63 V
0 4108 R
0 -63 V
stroke
3912 308 M
[ [(Helvetica) 140.0 0.0 true true 0 (16K)]
] -46.7 MCshow
1.000 UL
LTb
LCb setrgbcolor
4464 448 M
0 63 V
0 4108 R
0 -63 V
stroke
4464 308 M
[ [(Helvetica) 140.0 0.0 true true 0 (64K)]
] -46.7 MCshow
1.000 UL
LTb
LCb setrgbcolor
5016 448 M
0 63 V
0 4108 R
0 -63 V
stroke
5016 308 M
[ [(Helvetica) 140.0 0.0 true true 0 (256K)]
] -46.7 MCshow
1.000 UL
LTb
LCb setrgbcolor
5568 448 M
0 63 V
0 4108 R
0 -63 V
stroke
5568 308 M
[ [(Helvetica) 140.0 0.0 true true 0 (1M)]
] -46.7 MCshow
1.000 UL
LTb
LCb setrgbcolor
6119 448 M
0 63 V
0 4108 R
0 -63 V
stroke
6119 308 M
[ [(Helvetica) 140.0 0.0 true true 0 (4M)]
] -46.7 MCshow
1.000 UL
LTb
LCb setrgbcolor
6671 448 M
0 63 V
0 4108 R
0 -63 V
stroke
6671 308 M
[ [(Helvetica) 140.0 0.0 true true 0 (16M)]
] -46.7 MCshow
1.000 UL
LTb
LCb setrgbcolor
1.000 UL
LTB
LCb setrgbcolor
602 4619 N
602 448 L
6345 0 V
0 4171 V
-6345 0 V
Z stroke
1.000 UP
1.000 UL
LTb
LCb setrgbcolor
LCb setrgbcolor
126 2533 M
currentpoint gsave translate -270 rotate 0 0 moveto
[ [(Helvetica) 140.0 0.0 true true 0 (Time Read+Write \(nanoseconds\))]
] -46.7 MCshow
grestore
LTb
LCb setrgbcolor
3774 98 M
[ [(Helvetica) 140.0 0.0 true true 0 (Stride \(bytes\))]
] -46.7 MCshow
LTb
LCb setrgbcolor
3774 4829 M
[ [(Helvetica) 140.0 0.0 true true 0 (64-core AMD EPYC 7742 )]
XYsave
[(Helvetica) 140.0 0.0 true true 0 ( )]
XYrestore
[(Helvetica) 140.0 0.0 true true 0 (2.25GHz Read+Write \(ns\) Versus Stride)]
] -46.7 MCshow
% Begin plot #1
1.000 UP
1.000 UL
LTb
0.58 0.00 0.83 C LCb setrgbcolor
6296 4486 M
[ [(Helvetica) 140.0 0.0 true true 0 (0.5 KB)]
] -46.7 MRshow
1.000 UP
1.000 UL
LTb
0.58 0.00 0.83 C 6380 4486 M
399 0 V
602 658 M
878 600 L
276 -8 V
276 12 V
275 15 V
276 44 V
276 126 V
602 658 Pls
878 600 Pls
1154 592 Pls
1430 604 Pls
1705 619 Pls
1981 663 Pls
2257 789 Pls
6579 4486 Pls
% End plot #1
% Begin plot #2
1.000 UP
1.000 UL
LTb
0.00 0.62 0.45 C LCb setrgbcolor
6296 4346 M
[ [(Helvetica) 140.0 0.0 true true 0 (1 KB)]
] -46.7 MRshow
1.000 UP
1.000 UL
LTb
0.00 0.62 0.45 C 6380 4346 M
399 0 V
602 594 M
276 -4 V
276 0 V
276 1 V
275 13 V
276 14 V
276 43 V
276 127 V
602 594 Crs
878 590 Crs
1154 590 Crs
1430 591 Crs
1705 604 Crs
1981 618 Crs
2257 661 Crs
2533 788 Crs
6579 4346 Crs
% End plot #2
% Begin plot #3
1.000 UP
1.000 UL
LTb
0.34 0.71 0.91 C LCb setrgbcolor
6296 4206 M
[ [(Helvetica) 140.0 0.0 true true 0 (2 KB)]
] -46.7 MRshow
1.000 UP
1.000 UL
LTb
0.34 0.71 0.91 C 6380 4206 M
399 0 V
602 593 M
276 0 V
276 -4 V
276 1 V
275 2 V
276 12 V
276 14 V
276 43 V
276 127 V
602 593 Star
878 593 Star
1154 589 Star
1430 590 Star
1705 592 Star
1981 604 Star
2257 618 Star
2533 661 Star
2809 788 Star
6579 4206 Star
% End plot #3
% Begin plot #4
1.000 UP
1.000 UL
LTb
0.90 0.62 0.00 C LCb setrgbcolor
6296 4066 M
[ [(Helvetica) 140.0 0.0 true true 0 (4 KB)]
] -46.7 MRshow
1.000 UP
1.000 UL
LTb
0.90 0.62 0.00 C 6380 4066 M
399 0 V
602 593 M
276 -1 V
276 2 V
276 -5 V
275 0 V
276 3 V
276 11 V
276 14 V
276 43 V
276 128 V
602 593 Box
878 592 Box
1154 594 Box
1430 589 Box
1705 589 Box
1981 592 Box
2257 603 Box
2533 617 Box
2809 660 Box
3085 788 Box
6579 4066 Box
% End plot #4
% Begin plot #5
1.000 UP
1.000 UL
LTb
0.94 0.89 0.26 C LCb setrgbcolor
6296 3926 M
[ [(Helvetica) 140.0 0.0 true true 0 (8 KB)]
] -46.7 MRshow
1.000 UP
1.000 UL
LTb
0.94 0.89 0.26 C 6380 3926 M
399 0 V
602 597 M
276 -5 V
276 0 V
276 2 V
275 -5 V
276 0 V
276 2 V
276 15 V
276 26 V
276 39 V
276 116 V
602 597 BoxF
878 592 BoxF
1154 592 BoxF
1430 594 BoxF
1705 589 BoxF
1981 589 BoxF
2257 591 BoxF
2533 606 BoxF
2809 632 BoxF
3085 671 BoxF
3361 787 BoxF
6579 3926 BoxF
% End plot #5
% Begin plot #6
1.000 UP
1.000 UL
LTb
0.00 0.45 0.70 C LCb setrgbcolor
6296 3786 M
[ [(Helvetica) 140.0 0.0 true true 0 (16 KB)]
] -46.7 MRshow
1.000 UP
1.000 UL
LTb
0.00 0.45 0.70 C 6380 3786 M
399 0 V
602 601 M
276 -5 V
276 -2 V
276 -2 V
275 3 V
276 -6 V
276 0 V
276 10 V
276 26 V
276 8 V
276 42 V
276 112 V
602 601 Circle
878 596 Circle
1154 594 Circle
1430 592 Circle
1705 595 Circle
1981 589 Circle
2257 589 Circle
2533 599 Circle
2809 625 Circle
3085 633 Circle
3361 675 Circle
3637 787 Circle
6579 3786 Circle
% End plot #6
% Begin plot #7
1.000 UP
1.000 UL
LTb
0.90 0.12 0.06 C LCb setrgbcolor
6296 3646 M
[ [(Helvetica) 140.0 0.0 true true 0 (32 KB)]
] -46.7 MRshow
1.000 UP
1.000 UL
LTb
0.90 0.12 0.06 C 6380 3646 M
399 0 V
602 599 M
276 0 V
276 -2 V
276 -2 V
275 -1 V
276 1 V
276 -6 V
276 12 V
276 18 V
276 9 V
276 17 V
276 30 V
275 113 V
602 599 CircleF
878 599 CircleF
1154 597 CircleF
1430 595 CircleF
1705 594 CircleF
1981 595 CircleF
2257 589 CircleF
2533 601 CircleF
2809 619 CircleF
3085 628 CircleF
3361 645 CircleF
3637 675 CircleF
3912 788 CircleF
6579 3646 CircleF
% End plot #7
% Begin plot #8
1.000 UP
1.000 UL
LTb
0.00 0.00 0.00 C LCb setrgbcolor
6296 3506 M
[ [(Helvetica) 140.0 0.0 true true 0 (64 KB)]
] -46.7 MRshow
1.000 UP
1.000 UL
LTb
0.00 0.00 0.00 C 6380 3506 M
399 0 V
602 597 M
276 1 V
276 0 V
276 -4 V
275 29 V
276 -4 V
276 20 V
276 506 V
276 -6 V
276 630 V
276 530 V
3637 641 L
275 34 V
276 113 V
602 597 TriU
878 598 TriU
1154 598 TriU
1430 594 TriU
1705 623 TriU
1981 619 TriU
2257 639 TriU
2533 1145 TriU
2809 1139 TriU
3085 1769 TriU
3361 2299 TriU
3637 641 TriU
3912 675 TriU
4188 788 TriU
6579 3506 TriU
% End plot #8
% Begin plot #9
1.000 UP
1.000 UL
LTb
0.58 0.00 0.83 C LCb setrgbcolor
6296 3366 M
[ [(Helvetica) 140.0 0.0 true true 0 (128 KB)]
] -46.7 MRshow
1.000 UP
1.000 UL
LTb
0.58 0.00 0.83 C 6380 3366 M
399 0 V
602 598 M
276 0 V
276 0 V
276 -4 V
275 29 V
276 -3 V
276 20 V
276 505 V
276 232 V
276 1186 V
276 728 V
276 -979 V
3912 642 L
276 33 V
276 113 V
602 598 TriUF
878 598 TriUF
1154 598 TriUF
1430 594 TriUF
1705 623 TriUF
1981 620 TriUF
2257 640 TriUF
2533 1145 TriUF
2809 1377 TriUF
3085 2563 TriUF
3361 3291 TriUF
3637 2312 TriUF
3912 642 TriUF
4188 675 TriUF
4464 788 TriUF
6579 3366 TriUF
% End plot #9
% Begin plot #10
1.000 UP
1.000 UL
LTb
0.00 0.62 0.45 C LCb setrgbcolor
6296 3226 M
[ [(Helvetica) 140.0 0.0 true true 0 (256 KB)]
] -46.7 MRshow
1.000 UP
1.000 UL
LTb
0.00 0.62 0.45 C 6380 3226 M
399 0 V
602 598 M
276 1 V
276 -1 V
276 -5 V
275 30 V
276 -4 V
276 21 V
276 500 V
276 249 V
276 1187 V
276 930 V
276 -277 V
3912 2188 L
4188 684 L
276 -9 V
276 112 V
602 598 TriD
878 599 TriD
1154 598 TriD
1430 593 TriD
1705 623 TriD
1981 619 TriD
2257 640 TriD
2533 1140 TriD
2809 1389 TriD
3085 2576 TriD
3361 3506 TriD
3637 3229 TriD
3912 2188 TriD
4188 684 TriD
4464 675 TriD
4740 787 TriD
6579 3226 TriD
% End plot #10
% Begin plot #11
1.000 UP
1.000 UL
LTb
0.34 0.71 0.91 C LCb setrgbcolor
6296 3086 M
[ [(Helvetica) 140.0 0.0 true true 0 (512 KB)]
] -46.7 MRshow
1.000 UP
1.000 UL
LTb
0.34 0.71 0.91 C 6380 3086 M
399 0 V
602 598 M
276 0 V
276 1 V
276 2 V
275 56 V
276 3 V
276 19 V
276 527 V
276 200 V
276 1354 V
276 1048 V
276 -1 V
275 -627 V
276 -963 V
4464 658 L
276 17 V
276 113 V
602 598 TriDF
878 598 TriDF
1154 599 TriDF
1430 601 TriDF
1705 657 TriDF
1981 660 TriDF
2257 679 TriDF
2533 1206 TriDF
2809 1406 TriDF
3085 2760 TriDF
3361 3808 TriDF
3637 3807 TriDF
3912 3180 TriDF
4188 2217 TriDF
4464 658 TriDF
4740 675 TriDF
5016 788 TriDF
6579 3086 TriDF
% End plot #11
% Begin plot #12
1.000 UP
1.000 UL
LTb
0.90 0.62 0.00 C LCb setrgbcolor
6296 2946 M
[ [(Helvetica) 140.0 0.0 true true 0 (1 MB)]
] -46.7 MRshow
1.000 UP
1.000 UL
LTb
0.90 0.62 0.00 C 6380 2946 M
399 0 V
602 598 M
276 0 V
276 1 V
276 10 V
275 98 V
276 12 V
276 -25 V
276 548 V
276 217 V
276 1389 V
276 897 V
276 75 V
275 -296 V
276 -200 V
4464 2231 L
4740 652 L
276 23 V
276 114 V
602 598 Dia
878 598 Dia
1154 599 Dia
1430 609 Dia
1705 707 Dia
1981 719 Dia
2257 694 Dia
2533 1242 Dia
2809 1459 Dia
3085 2848 Dia
3361 3745 Dia
3637 3820 Dia
3912 3524 Dia
4188 3324 Dia
4464 2231 Dia
4740 652 Dia
5016 675 Dia
5292 789 Dia
6579 2946 Dia
% End plot #12
% Begin plot #13
1.000 UP
1.000 UL
LTb
0.94 0.89 0.26 C LCb setrgbcolor
6296 2806 M
[ [(Helvetica) 140.0 0.0 true true 0 (2 MB)]
] -46.7 MRshow
1.000 UP
1.000 UL
LTb
0.94 0.89 0.26 C 6380 2806 M
399 0 V
602 598 M
276 0 V
276 1 V
276 9 V
275 102 V
276 22 V
276 -37 V
276 546 V
276 353 V
276 1338 V
276 858 V
276 30 V
275 -86 V
276 -95 V
276 -315 V
4740 2126 L
5016 689 L
276 -14 V
276 112 V
602 598 DiaF
878 598 DiaF
1154 599 DiaF
1430 608 DiaF
1705 710 DiaF
1981 732 DiaF
2257 695 DiaF
2533 1241 DiaF
2809 1594 DiaF
3085 2932 DiaF
3361 3790 DiaF
3637 3820 DiaF
3912 3734 DiaF
4188 3639 DiaF
4464 3324 DiaF
4740 2126 DiaF
5016 689 DiaF
5292 675 DiaF
5568 787 DiaF
6579 2806 DiaF
% End plot #13
% Begin plot #14
1.000 UP
1.000 UL
LTb
0.00 0.45 0.70 C LCb setrgbcolor
6296 2666 M
[ [(Helvetica) 140.0 0.0 true true 0 (4 MB)]
] -46.7 MRshow
1.000 UP
1.000 UL
LTb
0.00 0.45 0.70 C 6380 2666 M
399 0 V
602 598 M
276 0 V
276 1 V
276 9 V
275 101 V
276 19 V
276 -33 V
276 546 V
276 351 V
276 1316 V
276 1015 V
276 -62 V
275 -29 V
276 -73 V
276 -14 V
276 -534 V
276 -947 V
5292 647 L
276 28 V
276 112 V
602 598 Pent
878 598 Pent
1154 599 Pent
1430 608 Pent
1705 709 Pent
1981 728 Pent
2257 695 Pent
2533 1241 Pent
2809 1592 Pent
3085 2908 Pent
3361 3923 Pent
3637 3861 Pent
3912 3832 Pent
4188 3759 Pent
4464 3745 Pent
4740 3211 Pent
5016 2264 Pent
5292 647 Pent
5568 675 Pent
5844 787 Pent
6579 2666 Pent
% End plot #14
% Begin plot #15
1.000 UP
1.000 UL
LTb
0.90 0.12 0.06 C LCb setrgbcolor
6296 2526 M
[ [(Helvetica) 140.0 0.0 true true 0 (8 MB)]
] -46.7 MRshow
1.000 UP
1.000 UL
LTb
0.90 0.12 0.06 C 6380 2526 M
399 0 V
602 598 M
276 0 V
276 1 V
276 9 V
275 103 V
276 19 V
276 -35 V
276 547 V
276 344 V
276 1329 V
276 1139 V
276 -69 V
275 -193 V
276 -55 V
276 211 V
276 -63 V
276 -644 V
5292 2186 L
5568 643 L
276 32 V
275 113 V
602 598 PentF
878 598 PentF
1154 599 PentF
1430 608 PentF
1705 711 PentF
1981 730 PentF
2257 695 PentF
2533 1242 PentF
2809 1586 PentF
3085 2915 PentF
3361 4054 PentF
3637 3985 PentF
3912 3792 PentF
4188 3737 PentF
4464 3948 PentF
4740 3885 PentF
5016 3241 PentF
5292 2186 PentF
5568 643 PentF
5844 675 PentF
6119 788 PentF
6579 2526 PentF
% End plot #15
% Begin plot #16
1.000 UP
1.000 UL
LTb
0.00 0.00 0.00 C LCb setrgbcolor
6296 2386 M
[ [(Helvetica) 140.0 0.0 true true 0 (16 MB)]
] -46.7 MRshow
1.000 UP
1.000 UL
LTb
0.00 0.00 0.00 C 6380 2386 M
399 0 V
602 599 M
276 0 V
276 4 V
276 14 V
275 107 V
276 41 V
276 6 V
276 652 V
276 177 V
276 1254 V
276 1218 V
276 60 V
275 -264 V
276 -90 V
276 121 V
276 60 V
276 -188 V
276 -561 V
5568 2132 L
5844 635 L
275 41 V
276 112 V
602 599 C0
878 599 C0
1154 603 C0
1430 617 C0
1705 724 C0
1981 765 C0
2257 771 C0
2533 1423 C0
2809 1600 C0
3085 2854 C0
3361 4072 C0
3637 4132 C0
3912 3868 C0
4188 3778 C0
4464 3899 C0
4740 3959 C0
5016 3771 C0
5292 3210 C0
5568 2132 C0
5844 635 C0
6119 676 C0
6395 788 C0
6579 2386 C0
% End plot #16
% Begin plot #17
1.000 UP
1.000 UL
LTb
0.58 0.00 0.83 C LCb setrgbcolor
6296 2246 M
[ [(Helvetica) 140.0 0.0 true true 0 (32 MB)]
] -46.7 MRshow
1.000 UP
1.000 UL
LTb
0.58 0.00 0.83 C 6380 2246 M
399 0 V
602 603 M
276 25 V
276 120 V
276 236 V
275 584 V
276 32 V
276 -205 V
276 50 V
276 196 V
276 1204 V
276 1186 V
276 70 V
275 -45 V
276 -70 V
276 -87 V
276 23 V
276 -160 V
276 -253 V
276 -401 V
276 -829 V
6119 635 L
276 41 V
276 112 V
602 603 C1
878 628 C1
1154 748 C1
1430 984 C1
1705 1568 C1
1981 1600 C1
2257 1395 C1
2533 1445 C1
2809 1641 C1
3085 2845 C1
3361 4031 C1
3637 4101 C1
3912 4056 C1
4188 3986 C1
4464 3899 C1
4740 3922 C1
5016 3762 C1
5292 3509 C1
5568 3108 C1
5844 2279 C1
6119 635 C1
6395 676 C1
6671 788 C1
6579 2246 C1
% End plot #17
% Begin plot #18
1.000 UP
1.000 UL
LTb
0.00 0.62 0.45 C LCb setrgbcolor
6296 2106 M
[ [(Helvetica) 140.0 0.0 true true 0 (64 MB)]
] -46.7 MRshow
1.000 UP
1.000 UL
LTb
0.00 0.62 0.45 C 6380 2106 M
399 0 V
602 605 M
276 42 V
276 65 V
276 186 V
275 547 V
276 651 V
276 502 V
276 170 V
276 -848 V
276 982 V
276 1130 V
276 41 V
275 -85 V
276 153 V
276 -87 V
276 -113 V
276 -77 V
276 1 V
276 -120 V
276 -413 V
6119 2275 L
6395 650 L
276 66 V
276 215 V
602 605 C2
878 647 C2
1154 712 C2
1430 898 C2
1705 1445 C2
1981 2096 C2
2257 2598 C2
2533 2768 C2
2809 1920 C2
3085 2902 C2
3361 4032 C2
3637 4073 C2
3912 3988 C2
4188 4141 C2
4464 4054 C2
4740 3941 C2
5016 3864 C2
5292 3865 C2
5568 3745 C2
5844 3332 C2
6119 2275 C2
6395 650 C2
6671 716 C2
6947 931 C2
6579 2106 C2
% End plot #18
2.000 UL
LTb
LCb setrgbcolor
1.000 UL
LTB
LCb setrgbcolor
602 4619 N
602 448 L
6345 0 V
0 4171 V
-6345 0 V
Z stroke
1.000 UP
1.000 UL
LTb
LCb setrgbcolor
stroke
grestore
end
showpage
%%Trailer
%%DocumentFonts: Helvetica
%%Pages: 1
