size,n_threads,n_iter,time_pp,time_pi,flops
1024,2,1014638395,1.445577,0.001494,5355.009385
1024,4,1014638395,1.386941,0.001433,5581.403150
1024,8,1014638395,0.940593,0.000972,8229.998043
1024,16,1014638395,0.553504,0.000572,13985.584132
1024,32,1014638395,0.286494,0.000296,27020.006458
1024,64,1014638395,0.246529,0.000255,31400.315508
