alg,n_threads,n,time
serial,1,1000000,736.91
reduce,2,1000000,370.203
critical,2,1000000,370.988
reduce,4,1000000,186.229
critical,4,1000000,188.604
reduce,8,1000000,97.449
critical,8,1000000,97.794
reduce,16,1000000,91.763
critical,16,1000000,85.182
reduce,32,1000000,290.418
critical,32,1000000,373.656
reduce,64,1000000,709.195
critical,64,1000000,535.886
